{
  "$schema": "http://schema.management.azure.com/schemas/2015-01-01/deploymentTemplate.json#",
  "contentVersion": "1.0.0.0",
  "parameters": {
    "appService_MindKeeper20200216090352_name": {
      "type": "string"
    },
    "appServicePlan_WebAPIPrototype20200216064717Plan_location": {
      "type": "string"
    },
    "appServicePlan_WebAPIPrototype20200216064717Plan_name": {
      "type": "string"
    },
    "appServicePlan_WebAPIPrototype20200216064717Plan_resourceGroup": {
      "type": "string"
    }
  },
  "resources": [
    {
      "location": "[parameters('appServicePlan_WebAPIPrototype20200216064717Plan_location')]",
      "name": "[parameters('appService_MindKeeper20200216090352_name')]",
      "type": "Microsoft.Web/sites",
      "apiVersion": "2015-08-01",
      "tags": {
        "[concat('hidden-related:', resourceId(parameters('appServicePlan_WebAPIPrototype20200216064717Plan_resourceGroup'),'Microsoft.Web/serverfarms', parameters('appServicePlan_WebAPIPrototype20200216064717Plan_name')))]": "empty"
      },
      "kind": "app",
      "properties": {
        "name": "[parameters('appService_MindKeeper20200216090352_name')]",
        "serverFarmId": "[resourceId(parameters('appServicePlan_WebAPIPrototype20200216064717Plan_resourceGroup'),'Microsoft.Web/serverfarms', parameters('appServicePlan_WebAPIPrototype20200216064717Plan_name'))]",
        "kind": "app",
        "httpsOnly": true
      },
      "identity": {
        "type": "SystemAssigned"
      }
    }
  ]
}